{"pager":{"page":1,"pageCount":11,"total":51,"pageSize":5,"nextPage":"https://play.dhis2.org/demo/api/organisationUnits?page=2&pageSize=5"},"organisationUnits":[{"id":"cDw53Ej8rju","displayName":"Afro Arab Clinic"},{"id":"GvFqTavdpGE","displayName":"Agape CHP"},{"id":"nq7F0t1Pz6t","displayName":"Arab Clinic"},{"id":"kBP1UvZpsNj","displayName":"Blessed Mokaba clinic"},{"id":"vRC0stJ5y9Q","displayName":"Bucksal Clinic"}]}
