{"pager":{"page":1,"pageCount":27,"total":1332,"pageSize":50,"nextPage":"https://play.dhis2.org/demo/api/organisationUnits?page=2"},"organisationUnits":[{"id":"Rp268JB6Ne4","displayName":"Adonkia CHP"},{"id":"cDw53Ej8rju","displayName":"Afro Arab Clinic"},{"id":"GvFqTavdpGE","displayName":"Agape CHP"},{"id":"plnHVbJR6p4","displayName":"Ahamadyya Mission Cl"},{"id":"BV4IomHvri4","displayName":"Ahmadiyya Muslim Hospital"},{"id":"qjboFI0irVu","displayName":"Air Port Centre, Lungi"},{"id":"dWOAzMcK2Wt","displayName":"Alkalia CHP"},{"id":"kbGqmM6ZWWV","displayName":"Allen Town Health Post"},{"id":"eoYV2p74eVz","displayName":"Approved School CHP"},{"id":"nq7F0t1Pz6t","displayName":"Arab Clinic"},{"id":"r5WWF9WDzoa","displayName":"Baama CHC"},{"id":"yMCshbaVExv","displayName":"Babara CHC"},{"id":"tlMeFk8C4CG","displayName":"Badala MCHP"},{"id":"YuQRtpLP10I","displayName":"Badjia"},{"id":"Jiymtq0A01x","displayName":"Bafodia CHC"},{"id":"jPidqyo7cpF","displayName":"Bagruwa"},{"id":"XtuhRhmbrJM","displayName":"Baiama CHP"},{"id":"BH7rDkWjUqc","displayName":"Bai Bureh Memorial Hospital"},{"id":"c41XRVOYNJm","displayName":"Baiima CHP"},{"id":"Rll4VmTDRiE","displayName":"Bai Largo MCHP"},{"id":"Eyj2kiEJ7M3","displayName":"Bailor CHP"},{"id":"HFyjUvMjQ8H","displayName":"Baiwala CHP"},{"id":"MHAWZr2Caxw","displayName":"Bakeloko CHP"},{"id":"LOpWauwwghf","displayName":"Bambara Kaima CHP"},{"id":"mUuCjQWMaOc","displayName":"Bambara MCHP"},{"id":"TNbHYOuQi8s","displayName":"Bambawolo CHP"},{"id":"aSfF9kuNINJ","displayName":"Bambuibu Tommy MCHP"},{"id":"wYLjA4vN6Y9","displayName":"Bambukoro MCHP"},{"id":"jjtzkzrmG7s","displayName":"Banana Island MCHP"},{"id":"FNnj3jKGS7i","displayName":"Bandajuma Clinic CHC"},{"id":"ABM75Q1UfoP","displayName":"Bandajuma Kpolihun CHP"},{"id":"rx9ubw0UCqj","displayName":"Bandajuma MCHP"},{"id":"OZ1olxsTyNa","displayName":"Bandajuma Sinneh MCHP"},{"id":"MpcMjLmbATv","displayName":"Bandajuma Yawei CHC"},{"id":"qO2JLjYrg91","displayName":"Bandakarifaia MCHP"},{"id":"U7yKrx2QVet","displayName":"Bandaperie CHP"},{"id":"uPshwz3B3Uu","displayName":"Bandasuma CHP"},{"id":"aF6iPGbrcRk","displayName":"Bandasuma Fiama MCHP"},{"id":"lpAPY3QOY2D","displayName":"Bandawor MCHP"},{"id":"t1aAdpBbDB3","displayName":"Bandusuma MCHP"},{"id":"xQIU41mR69s","displayName":"Bangambaya MCHP"},{"id":"pdF4XIHIGPx","displayName":"Bangoma MCHP"},{"id":"rxc497GUdDt","displayName":"Banka Makuloh MCHP"},{"id":"vWbkYPRmKyS","displayName":"Baoma"},{"id":"FLjwMPWLrL2","displayName":"Baomahun CHC"},{"id":"Yj2ni275yPJ","displayName":"Baoma (Koya) CHC"},{"id":"a1dP5m3Clw4","displayName":"Baoma Kpenge CHP"},{"id":"TQ5DSmdliN7","displayName":"Baoma (Luawa) MCHP"},{"id":"t52CJEyLhch","displayName":"Baoma MCHP"},{"id":"Y8foq27WLti","displayName":"Baoma Oil Mill CHC"}]}
