{"pager":{"page":1,"pageCount":3,"total":11,"pageSize":5,"nextPage":"https://play.dhis2.org/demo/api/organisationUnits?page=2&pageSize=5"},"organisationUnits":[{"id":"vRC0stJ5y9Q","displayName":"Bucksal Clinic"},{"id":"sK498nBOLfQ","displayName":"Elshadai MCHP"},{"id":"jfV49JGnYKF","displayName":"Fatibra CHP"},{"id":"jk1TtiBM5hz","displayName":"Holy Mary Hospital"},{"id":"uROAmk9ymNE","displayName":"Kindoyal Hospital"}]}
